{
    "uuid": "example@gjs.guide",
    "name": "Example Extension",
    "description": "An example extension",
    "shell-version": [ "3.38", "45" ],
    "url": "https://gjs.guide/extensions",
    "gettext-domain": "example@gjs.guide",
    "settings-schema": "org.gnome.shell.extensions.example",
    "session-modes": ["user", "unlock-dialog"],
    "donations": {
        "github": "john_doe",
        "custom": ["https://example.com/1/", "https://example.com/2/"]
    },
    "version": 2,
    "version-name": "1.1"
}